{
  "chosenTerm|bodilyInjury": {
    "25000/50000": "25/50",
    "50000/100000": "50/100",
    "100000/300000": "100/300",
    "250000/500000": "250/500",
    "300000/300000": "300/300",
    "500000/500000": "500/500",
    "500000/1000000": "500/1000",
    "1000000/1000000": "1000/1000"
  },
  "selected|uninsuredMotorist.key": {
    "*": "true"
  },
  "chosenTerm|uninsuredMotorist": {
    "25000/50000": "25/50",
    "50000/100000": "50/100",
    "100000/300000": "100/300",
    "250000/500000": "250/500",
    "500000/500000": "500/500",
    "500000/1000000": "500/1000",
    "1000000/1000000": "1000/1000"
  },
  "chosenTerm|underInsuredMotorist": {
    "50000/100000": "50/100",
    "100000/300000": "100/300",
    "250000/500000": "250/500",
    "500000/500000": "500/500",
    "500000/1000000": "500/1000",
    "1000000/1000000": "1000/1000"
  },
  "chosenTermValue|uninsuredMotorist.value": {
    "25000/50000": "25000/50000",
    "50000/100000": "50000/100000",
    "100000/300000": "100000/300000",
    "250000/500000": "250000/500000",
    "500000/500000": "500000/500000",
    "500000/1000000": "500000/1000000",
    "1000000/1000000": "1000000/1000000"
  },
  "selected|rental.key": {
    "*": "true"
  },
  "offer.requestedCoverages.vehicle.*.comprehensive": {
    "250": "250",
    "500": "500",
    "750": "750",
    "1000": "1000",
    "1250": "1250",
    "1500": "1500",
    "2000": "2000",
    "2500": "2500"
  },
  "offer.requestedCoverages.vehicle.*.collision": {
    "250": "250",
    "500": "500",
    "750": "750",
    "1000": "1000",
    "1250": "1250",
    "1500": "1500",
    "2000": "2000",
    "2500": "2500"
  }
}