{
  "driver.*.license.state": {
    "STATE_CODE.AK": "AK",
    "STATE_CODE.AL": "AL",
    "STATE_CODE.AR": "AR",
    "STATE_CODE.AZ": "AZ",
    "STATE_CODE.CA": "CA",
    "STATE_CODE.CO": "CO",
    "STATE_CODE.CT": "CT",
    "STATE_CODE.DC": "DC",
    "STATE_CODE.DE": "DE",
    "STATE_CODE.FL": "FL",
    "STATE_CODE.GA": "GA",
    "STATE_CODE.HI": "HI",
    "STATE_CODE.IA": "IA",
    "STATE_CODE.ID": "ID",
    "STATE_CODE.IL": "IL",
    "STATE_CODE.IN": "IN",
    "STATE_CODE.KS": "KS",
    "STATE_CODE.KY": "KY",
    "STATE_CODE.LA": "LA",
    "STATE_CODE.MA": "MA",
    "STATE_CODE.MD": "MD",
    "STATE_CODE.ME": "ME",
    "STATE_CODE.MI": "MI",
    "STATE_CODE.MN": "MN",
    "STATE_CODE.MO": "MO",
    "STATE_CODE.MS": "MS",
    "STATE_CODE.MT": "MT",
    "STATE_CODE.NC": "NC",
    "STATE_CODE.ND": "ND",
    "STATE_CODE.NE": "NE",
    "STATE_CODE.NH": "NH",
    "STATE_CODE.NJ": "NJ",
    "STATE_CODE.NM": "NM",
    "STATE_CODE.NV": "NV",
    "STATE_CODE.NY": "NY",
    "STATE_CODE.OH": "OH",
    "STATE_CODE.OK": "OK",
    "STATE_CODE.OR": "OR",
    "STATE_CODE.PA": "PA",
    "STATE_CODE.RI": "RI",
    "STATE_CODE.SC": "SC",
    "STATE_CODE.SD": "SD",
    "STATE_CODE.TN": "TN",
    "STATE_CODE.TX": "TX",
    "STATE_CODE.UT": "UT",
    "STATE_CODE.VA": "VA",
    "STATE_CODE.VT": "VT",
    "STATE_CODE.WA": "WA",
    "STATE_CODE.WI": "WI",
    "STATE_CODE.WV": "WV",
    "STATE_CODE.WY": "WY",
    "STATE_CODE.INTL": "INT_ext",
    "STATE_CODE.*": "AZ",
    "*": "AZ"
  },
  "person.*.driverType": {
    "DRIVER_TYPE.DEFERRED": "nonoperator",
    "DRIVER_TYPE.EXCLUDED": "excluded",
    "DRIVER_TYPE.RATED": "operator",
    "DRIVER_TYPE.UNLICENSED": "nonoperator",
    "DRIVER_TYPE.UNRATED": "nonoperator",
    "DRIVER_TYPE.*": "operator",
    "*": "operator"
  },
  "person.*.maritalStatus": {
    "S": "NotMarried_ext",
    "M": "M",
    "P": "Married_Separated_ext",
    "D": "NotMarried_Divorced_ext",
    "W": "NotMarried_Widowed_ext",
    "*": "NotMarried_ext"
  },
  "person.*.relationshipToApplicant": {
    "RELATIONSHIP_TO_APPLICANT.OTHER_THAN_SPOUSE": "relatedotherthanspouse",
    "RELATIONSHIP_TO_APPLICANT.DOMESTIC_PARTNER": "notrelated",
    "RELATIONSHIP_TO_APPLICANT.NOT_RELATED": "notrelated",
    "RELATIONSHIP_TO_APPLICANT.SPOUSE": "spouse",
    "RELATIONSHIP_TO_APPLICANT.INSURED": "insured",
    "*": "relatedotherthanspouse"
  },
  "insurance.prior.lapse": {
    "PRIOR_INSURANCE.LAPSE_REASON.MILITARY_RETURN": "activeMilitary",
    "PRIOR_INSURANCE.LAPSE_REASON.OTHER": "None",
    "PRIOR_INSURANCE.LAPSE_REASON.*": "None",
    "PRIOR_INSURANCE.LAPSE_REASON.NON_PAYMENT": "nonPayment",
    "PRIOR_INSURANCE.LAPSE_REASON.OWNED_VEHICLE_NOT_DRIVEN": "ownedVehicleParkedStoredOffRoadNotDriven",
    "PRIOR_INSURANCE.LAPSE_REASON.NO_VEHICLE": "hasNotOwnedOrOperatedAVehicle",
    "PRIOR_INSURANCE.LAPSE_REASON.NO_PRIOR_INSURANCE": "noPriorInsurance",
    "PRIOR_INSURANCE.LAPSE_REASON.OUT_OF_COUNTRY": "outOfCountry",
    "PRIOR_INSURANCE.LAPSE_REASON.INCARCERATED": "incarcerated",
    "PRIOR_INSURANCE.LAPSE_REASON.COMPANY_CAR": "drivingACompanyCar",
    "PRIOR_INSURANCE.LAPSE_REASON.CAR_OWNED_BY_RELATIVE": "drivingACarOwnedByARelative",
    "PRIOR_INSURANCE.LAPSE_REASON.ACTIVE_MILITARY": "activeMilitary",
    "PRIOR_INSURANCE.NO_INSURANCE_REQUIRED": "noInsuranceRequired",
    "*": "None"
  }
}