[
  {
    "source": "incident.*.violation.description",
    "target": "params.[0].quoteData.lobData.personalAuto_EA.manualViolationRecords.[].violationType",
    "type": "ENUM"
  },
  {
    "when": "#data.matches('\\d{4}-\\d{2}-\\d{2}')",
    "source": "incident.*.violation.date",
    "target": "params.[0].quoteData.lobData.personalAuto_EA.manualViolationRecords.[].incidentDate.day",
    "read": "#data.substring(8,10)"
  },
  {
    "when": "#data.matches('\\d{4}-\\d{2}-\\d{2}')",
    "source": "incident.*.violation.date",
    "target": "params.[0].quoteData.lobData.personalAuto_EA.manualViolationRecords.[].incidentDate.month",
    "read": "T(java.lang.Integer).valueOf(#data.substring(5,7))-1"
  },
  {
    "when": "#data.matches('\\d{4}-\\d{2}-\\d{2}')",
    "source": "incident.*.violation.date",
    "target": "params.[0].quoteData.lobData.personalAuto_EA.manualViolationRecords.[].incidentDate.year",
    "read": "#data.substring(0,4)"
  },
  {
    "source": "incident.*.violation.date",
    "target": "params.[0].quoteData.lobData.personalAuto_EA.manualViolationRecords.[].assignment.integrationId",
    "read": "'e1p-pc:'.concat( #inputs.get('incident.'.concat(#indexedSource.split('\\.')[1]).concat('.driver.ref'))  )"
  },
  {
    "source": "incident.*.violation.date",
    "target": "params.[0].quoteData.lobData.personalAuto_EA.manualViolationRecords.[].assignment.firstName",
    "read": "#inputs.get('person.'.concat(#inputs.get('incident.'.concat(#indexedSource.split('\\.')[1]).concat('.driver.ref'))).concat('.firstName'))"
  },
  {
    "source": "incident.*.violation.date",
    "target": "params.[0].quoteData.lobData.personalAuto_EA.manualViolationRecords.[].assignment.lastName",
    "read": "#inputs.get('person.'.concat(#inputs.get('incident.'.concat(#indexedSource.split('\\.')[1]).concat('.driver.ref'))).concat('.lastName'))"
  },
  {
    "source": "incident.*.violation.date",
    "target": "params.[0].quoteData.lobData.personalAuto_EA.manualViolationRecords.[].assignment.assignmentType",
    "read": "'person'"
  },
  {
    "when": "#inputs.containsKey('incident.*.violation.description')",
    "source": "incident.*.violation.description",
    "target": "params.[0].quoteData.lobData.personalAuto_EA.hasManualViolations",
    "read": "true"
  }
]
