SAPI,GW_DTO
property.requestedCoverages.unscheduledJewelryWatchesFurs,params.[0].quoteData.lobData.homeowners_EH.offerings.[0].coverages.schedules[patternName='EH_NamedPerilIncCovCItem'].scheduleItems[@deserialization-class='edge.capabilities.policycommon.coverage.schedule.dto.patterns.SimpleScheduledItemDTO' && itemData.EH_NamedPerilIncCovC_ScheduleType.typeCodeValue='jewelrywatchesfurs'].itemData.EH_NamedPerilIncCovC_ItemLimit.bigDecimal
property.requestedCoverages.unscheduledJewelryWatchesFurs,params.[0].quoteData.lobData.homeowners_EH.offerings.[0].coverages.coverages[codeIdentifier='EH_NamedPerilIncCovC'].selected
property.requestedCoverages.increasedCoverageCSpecialLiabilityLimitSilverware,params.[0].quoteData.lobData.homeowners_EH.offerings.[0].coverages.schedules[patternName='EH_NamedPerilIncCovCItem'].scheduleItems[@deserialization-class='edge.capabilities.policycommon.coverage.schedule.dto.patterns.SimpleScheduledItemDTO' && itemData.EH_NamedPerilIncCovC_ScheduleType.typeCodeValue='silverwaregoldwarepewterware'].itemData.EH_NamedPerilIncCovC_ItemLimit.bigDecimal
property.requestedCoverages.increasedCoverageCSpecialLiabilityLimitSilverware,params.[0].quoteData.lobData.homeowners_EH.offerings.[0].coverages.coverages[codeIdentifier='EH_NamedPerilIncCovC'].selected
property.requestedCoverages.increasedCoverageCSpecialLiabilityLimitSecurities,params.[0].quoteData.lobData.homeowners_EH.offerings.[0].coverages.schedules[patternName='EH_NamedPerilIncCovCItem'].scheduleItems[@deserialization-class='edge.capabilities.policycommon.coverage.schedule.dto.patterns.SimpleScheduledItemDTO' && itemData.EH_NamedPerilIncCovC_ScheduleType.typeCodeValue='securities'].itemData.EH_NamedPerilIncCovC_ItemLimit.bigDecimal
property.requestedCoverages.increasedCoverageCSpecialLiabilityLimitSecurities,params.[0].quoteData.lobData.homeowners_EH.offerings.[0].coverages.coverages[codeIdentifier='EH_NamedPerilIncCovC'].selected
property.requestedCoverages.increasedCoverageCSpecialLiabilityLimitMoney,params.[0].quoteData.lobData.homeowners_EH.offerings.[0].coverages.schedules[patternName='EH_NamedPerilIncCovCItem'].scheduleItems[@deserialization-class='edge.capabilities.policycommon.coverage.schedule.dto.patterns.SimpleScheduledItemDTO' && itemData.EH_NamedPerilIncCovC_ScheduleType.typeCodeValue='money'].itemData.EH_NamedPerilIncCovC_ItemLimit.bigDecimal
property.requestedCoverages.increasedCoverageCSpecialLiabilityLimitMoney,params.[0].quoteData.lobData.homeowners_EH.offerings.[0].coverages.coverages[codeIdentifier='EH_NamedPerilIncCovC'].selected
property.requestedCoverages.electronicApparatusInAndOutOfVehicle,params.[0].quoteData.lobData.homeowners_EH.offerings.[0].coverages.schedules[patternName='EH_NamedPerilIncCovCItem'].scheduleItems[@deserialization-class='edge.capabilities.policycommon.coverage.schedule.dto.patterns.SimpleScheduledItemDTO' && itemData.EH_NamedPerilIncCovC_ScheduleType.typeCodeValue='portableelectronicequipmentinvehicle'].itemData.EH_NamedPerilIncCovC_ItemLimit.bigDecimal
property.requestedCoverages.electronicApparatusInAndOutOfVehicle,params.[0].quoteData.lobData.homeowners_EH.offerings.[0].coverages.coverages[codeIdentifier='EH_NamedPerilIncCovC'].selected
property.requestedCoverages.electronicApparatusInAndOutOfVehicle,params.[0].quoteData.lobData.homeowners_EH.offerings.[0].coverages.schedules[patternName='EH_NamedPerilIncCovCItem'].scheduleItems[@deserialization-class='edge.capabilities.policycommon.coverage.schedule.dto.patterns.SimpleScheduledItemDTO' && itemData.EH_NamedPerilIncCovC_ScheduleType.typeCodeValue='portableelectronicequipmentinvehicle'].itemData.EH_NamedPerilIncCovC_ItemLimit.bigDecimal
property.requestedCoverages.electronicApparatusInAndOutOfVehicle,params.[0].quoteData.lobData.homeowners_EH.offerings.[0].coverages.coverages[codeIdentifier='EH_NamedPerilIncCovC'].selected
property.requestedCoverages.increasedCoverageCSpecialLiabilityLimitFur,params.[0].quoteData.lobData.homeowners_EH.offerings.[0].coverages.schedules[patternName='EH_NamedPerilIncCovCItem'].scheduleItems[@deserialization-class='edge.capabilities.policycommon.coverage.schedule.dto.patterns.SimpleScheduledItemDTO' && itemData.EH_NamedPerilIncCovC_ScheduleType.typeCodeValue='jewelrywatchesfurs'].itemData.EH_NamedPerilIncCovC_ItemLimit.bigDecimal
property.requestedCoverages.increasedCoverageCSpecialLiabilityLimitFur,params.[0].quoteData.lobData.homeowners_EH.offerings.[0].coverages.coverages[codeIdentifier='EH_NamedPerilIncCovC'].selected
property.requestedCoverages.increasedCoverageCSpecialLiabilityLimitFur,params.[0].quoteData.lobData.homeowners_EH.offerings.[0].coverages.schedules[patternName='EH_NamedPerilIncCovCItem'].scheduleItems[@deserialization-class='edge.capabilities.policycommon.coverage.schedule.dto.patterns.SimpleScheduledItemDTO' && itemData.EH_NamedPerilIncCovC_ScheduleType.typeCodeValue='jewelrywatchesfurs'].itemData.EH_NamedPerilIncCovC_ItemLimit.bigDecimal
property.requestedCoverages.increasedCoverageCSpecialLiabilityLimitFur,params.[0].quoteData.lobData.homeowners_EH.offerings.[0].coverages.coverages[codeIdentifier='EH_NamedPerilIncCovC'].selected
property.requestedCoverages.increasedCoverageCSpecialLiabilityLimitGuns,params.[0].quoteData.lobData.homeowners_EH.offerings.[0].coverages.schedules[patternName='EH_NamedPerilIncCovCItem'].scheduleItems[@deserialization-class='edge.capabilities.policycommon.coverage.schedule.dto.patterns.SimpleScheduledItemDTO' && itemData.EH_NamedPerilIncCovC_ScheduleType.typeCodeValue='firearms'].itemData.EH_NamedPerilIncCovC_ItemLimit.bigDecimal
property.requestedCoverages.increasedCoverageCSpecialLiabilityLimitGuns,params.[0].quoteData.lobData.homeowners_EH.offerings.[0].coverages.coverages[codeIdentifier='EH_NamedPerilIncCovC'].selected
property.requestedCoverages.electronicApparatusInVehicle,params.[0].quoteData.lobData.homeowners_EH.offerings.[0].coverages.schedules[patternName='EH_NamedPerilIncCovCItem'].scheduleItems[@deserialization-class='edge.capabilities.policycommon.coverage.schedule.dto.patterns.SimpleScheduledItemDTO' && itemData.EH_NamedPerilIncCovC_ScheduleType.typeCodeValue='portableelectronicequipmentinvehicle'].itemData.EH_NamedPerilIncCovC_ItemLimit.bigDecimal
property.requestedCoverages.electronicApparatusInVehicle,params.[0].quoteData.lobData.homeowners_EH.offerings.[0].coverages.coverages[codeIdentifier='EH_NamedPerilIncCovC'].selected
