[
  {
    "when": "{'01','02','03','05'}.contains(#inputs.get('property.policyType'))",
    "source": "property.requestedCoverages.goldBundle",
    "target": "params.[0].quoteData.lobData.homeowners_EH.offerings.[0].coverages.coverages[codeIdentifier='EH_GoldCoverageBundle'].selected",
    "read": "true"
  },
  {
    "when": "{'01','02','03','05'}.contains(#inputs.get('property.policyType'))",
    "source": "property.requestedCoverages.platinumBundle",
    "target": "params.[0].quoteData.lobData.homeowners_EH.offerings.[0].coverages.coverages[codeIdentifier='EH_PlatinumCoverageBundle'].selected",
    "read": "true"
  },
  {
    "when": "{'01','02','03','05'}.contains(#inputs.get('property.policyType')) && (#inputs.containsKey('property.requestedCoverages.goldBundle') || #inputs.containsKey('property.requestedCoverages.platinumBundle'))",
    "source": "policy.home.effectiveDate",
    "target": "params.[0].quoteData.lobData.homeowners_EH.offerings.[0].coverages.coverages[codeIdentifier='EH_RefrigeratedProperty'].selected",
    "read": "true"
  },
  {
    "when": "{'01','02','03','05'}.contains(#inputs.get('property.policyType')) && (#inputs.containsKey('property.requestedCoverages.goldBundle') || #inputs.containsKey('property.requestedCoverages.platinumBundle'))",
    "source": "policy.home.effectiveDate",
    "target": "params.[0].quoteData.lobData.homeowners_EH.offerings.[0].coverages.coverages[codeIdentifier='EH_RefrigeratedProperty'].referenceCode",
    "read": "'RefrigeratedProperty'"
  },
  {
    "when": "{'01','02','03','05'}.contains(#inputs.get('property.policyType')) && (#inputs.containsKey('property.requestedCoverages.goldBundle') || #inputs.containsKey('property.requestedCoverages.platinumBundle'))",
    "source": "policy.home.effectiveDate",
    "target": "params.[0].quoteData.lobData.homeowners_EH.offerings.[0].coverages.coverages[codeIdentifier='EH_RefrigeratedProperty'].terms[codeIdentifier='EH_RefrigeratedProperty_Limit' && updated=true].chosenTerm",
    "read": "'500'"
  },
  {
    "when": "{'01','02','03','05'}.contains(#inputs.get('property.policyType')) && (#inputs.containsKey('property.requestedCoverages.goldBundle') || #inputs.containsKey('property.requestedCoverages.platinumBundle'))",
    "source": "policy.home.effectiveDate",
    "target": "params.[0].quoteData.lobData.homeowners_EH.offerings.[0].coverages.coverages[codeIdentifier='EH_RefrigeratedProperty'].terms[codeIdentifier='EH_RefrigeratedProperty_Deductible' && updated=true].chosenTerm",
    "read": "'100'"
  },
  {
    "when": "{'01','02','03','05'}.contains(#inputs.get('property.policyType')) && (#inputs.containsKey('property.requestedCoverages.goldBundle') || #inputs.containsKey('property.requestedCoverages.platinumBundle'))",
    "source": "policy.home.effectiveDate",
    "target": "params.[0].quoteData.lobData.homeowners_EH.offerings.[0].coverages.coverages[codeIdentifier='EH_AddlAmtsofInsuranceCov'].selected",
    "read": "true"
  },
  {
    "when": "{'01','02','03','05'}.contains(#inputs.get('property.policyType')) && #inputs.containsKey('property.requestedCoverages.goldBundle')",
    "source": "property.requestedCoverages.goldBundle",
    "target": "params.[0].quoteData.lobData.homeowners_EH.offerings.[0].coverages.coverages[codeIdentifier='EH_AddlAmtsofInsuranceCov'].terms.[0].chosenTerm",
    "read": "'.25'"
  },
  {
    "when": "{'01','02','03','05'}.contains(#inputs.get('property.policyType')) && #inputs.containsKey('property.requestedCoverages.platinumBundle')",
    "source": "property.requestedCoverages.platinumBundle",
    "target": "params.[0].quoteData.lobData.homeowners_EH.offerings.[0].coverages.coverages[codeIdentifier='EH_AddlAmtsofInsuranceCov'].terms.[0].chosenTerm",
    "read": "'.50'"
  },
  {
    "when": "!#inputs.containsKey('property.requestedCoverages.goldBundle') && !#inputs.containsKey('property.requestedCoverages.platinumBundle')",
    "source": "property.requestedCoverages.fullValueReplacementPct",
    "target": "params.[0].quoteData.lobData.homeowners_EH.offerings.[0].coverages.coverages[codeIdentifier='EH_AddlAmtsofInsuranceCov'].terms.[0].chosenTerm",
    "read": "'No Cap'.equals(#data) ? 0.50 : T(java.lang.Math).min(T(java.lang.Math).max(T(java.lang.Double).valueOf('0'.concat(#data.replaceAll('[^\\d\\.]','')))/(#data.matches('^0*\\.\\d+%*$')?1.0:100.0),0.01),0.99)"
  },
  {
    "when": "{'01','02','03','05'}.contains(#inputs.get('property.policyType')) && (#inputs.containsKey('property.requestedCoverages.goldBundle') || #inputs.containsKey('property.requestedCoverages.platinumBundle'))",
    "source": "policy.home.effectiveDate",
    "target": "params.[0].quoteData.lobData.homeowners_EH.offerings.[0].coverages.coverages[codeIdentifier='EH_SewerSepticSumpCov'].selected",
    "read": "true"
  },
  {
    "when": "{'01','02','03','05'}.contains(#inputs.get('property.policyType')) && #inputs.containsKey('property.requestedCoverages.goldBundle')",
    "source": "property.requestedCoverages.goldBundle",
    "target": "params.[0].quoteData.lobData.homeowners_EH.offerings.[0].coverages.coverages[codeIdentifier='EH_SewerSepticSumpCov'].terms.[0].chosenTerm",
    "read": "'5000'"
  },
  {
    "when": "{'01','02','03','05'}.contains(#inputs.get('property.policyType')) && #inputs.containsKey('property.requestedCoverages.platinumBundle')",
    "source": "property.requestedCoverages.platinumBundle",
    "target": "params.[0].quoteData.lobData.homeowners_EH.offerings.[0].coverages.coverages[codeIdentifier='EH_SewerSepticSumpCov'].terms.[0].chosenTerm",
    "read": "'10000'"
  },
  {
    "when": "!#data.equals('0') && !#data.equals('0.0') && !#inputs.containsKey('property.requestedCoverages.goldBundle') && !#inputs.containsKey('property.requestedCoverages.platinumBundle')",
    "source": "property.requestedCoverages.includeWaterBackup",
    "target": "params.[0].quoteData.lobData.homeowners_EH.offerings.[0].coverages.coverages[codeIdentifier='EH_SewerSepticSumpCov'].terms.[0].chosenTerm"
  },
  {
    "when": "{'01','02','03','05'}.contains(#inputs.get('property.policyType')) && (#inputs.containsKey('property.requestedCoverages.goldBundle') || #inputs.containsKey('property.requestedCoverages.platinumBundle'))",
    "source": "policy.home.effectiveDate",
    "target": "params.[0].quoteData.lobData.homeowners_EH.offerings.[0].coverages.coverages[codeIdentifier='EH_SpecialPersonalPropertyCov'].selected",
    "read": "true"
  },
  {
    "when": "{'01','02','03','05'}.contains(#inputs.get('property.policyType')) && (#inputs.containsKey('property.requestedCoverages.goldBundle') || #inputs.containsKey('property.requestedCoverages.platinumBundle'))",
    "source": "policy.home.effectiveDate",
    "target": "params.[0].quoteData.lobData.homeowners_EH.offerings.[0].coverages.coverages[codeIdentifier='EH_PersonalPropertyReplacementCostCov'].selected",
    "read": "true"
  },
  {
    "when": "{'01','02','03','05'}.contains(#inputs.get('property.policyType')) && #inputs.containsKey('property.requestedCoverages.platinumBundle')",
    "source": "policy.home.effectiveDate",
    "target": "params.[0].quoteData.lobData.homeowners_EH.offerings.[0].coverages.coverages[codeIdentifier='EH_OrdinanceCov'].selected",
    "read": "true"
  },
  {
    "when": "{'01','02','03','05'}.contains(#inputs.get('property.policyType')) && #inputs.containsKey('property.requestedCoverages.platinumBundle')",
    "source": "policy.home.effectiveDate",
    "target": "params.[0].quoteData.lobData.homeowners_EH.offerings.[0].coverages.coverages[codeIdentifier='EH_OrdinanceCov'].terms.[0].chosenTerm",
    "read": "'0.25'"
  },
  {
    "when": "!#inputs.containsKey('property.requestedCoverages.platinumBundle')",
    "source": "property.requestedCoverages.buildingOrdinanceOrLaw",
    "target": "params.[0].quoteData.lobData.homeowners_EH.offerings.[0].coverages.coverages[codeIdentifier='EH_OrdinanceCov'].terms.[0].chosenTerm",
    "read": "T(java.lang.Math).min(T(java.lang.Math).max(T(java.lang.Double).valueOf('0'.concat(#data.replaceAll('[^\\d\\.]','')))/(#data.matches('^0*\\.\\d+%*$')?1.0:100.0),0.01),0.99)"
  },
  {
    "when": "{'01','02','03','05'}.contains(#inputs.get('property.policyType')) && (#inputs.containsKey('property.requestedCoverages.goldBundle') || #inputs.containsKey('property.requestedCoverages.platinumBundle'))",
    "source": "policy.home.effectiveDate",
    "target": "params.[0].quoteData.lobData.homeowners_EH.offerings.[0].coverages.coverages[codeIdentifier='EH_NamedPerilIncCovC'].selected",
    "read": "true"
  },
  {
    "when": "{'01','02','03','05'}.contains(#inputs.get('property.policyType')) && (#inputs.containsKey('property.requestedCoverages.goldBundle') || #inputs.containsKey('property.requestedCoverages.platinumBundle'))",
    "source": "policy.home.effectiveDate",
    "target": "params.[0].quoteData.lobData.homeowners_EH.offerings.[0].coverages.schedules[patternName='EH_NamedPerilIncCovCItem'].scheduleItems[itemData.EH_NamedPerilIncCovC_ScheduleType.typeCodeValue='jewelrywatchesfurs' && itemData.EH_NamedPerilIncCovC_ItemLimit.bigDecimal=4000].@deserialization-class",
    "read": "'edge.capabilities.policycommon.coverage.schedule.dto.patterns.SimpleScheduledItemDTO'"
  },
  {
    "when": "{'01','02','03','05'}.contains(#inputs.get('property.policyType')) && (#inputs.containsKey('property.requestedCoverages.goldBundle') || #inputs.containsKey('property.requestedCoverages.platinumBundle'))",
    "source": "answers.property.requestedCoverages.dwelling.value",
    "target": "params.[0].quoteData.lobData.homeowners_EH.offerings.[0].coverages.coverages[codeIdentifier='EH_PersonalPropertyCovC'].terms.[0].directValue",
    "read": "new Integer(T(java.lang.Math).ceil( (T(java.lang.Double).valueOf('.70')*(new Integer(T(java.lang.Math).ceil(#dataInt / 1000.0) * 1000)) )))"
  }
]