SAPI,GW_DTO
address.[@primaryInsured.mailing.address.ref].line2,params.[0].quoteData.baseData.policyMailingAddress_Ext.addressLine2
address.[@primaryInsured.mailing.address.ref].line2,params.[0].quoteData.baseData.policyBillingAddress_Ext.addressLine2
address.[@primaryInsured.mailing.address.ref].line1,params.[0].quoteData.baseData.policyAddress.addressLine1
address.[@primaryInsured.mailing.address.ref].line1,params.[0].quoteData.baseData.policyMailingAddress_Ext.addressLine1
address.[@primaryInsured.mailing.address.ref].line1,params.[0].quoteData.baseData.policyBillingAddress_Ext.addressLine1
address.[@primaryInsured.mailing.address.ref].line1,params.[0].quoteData.baseData.isBillingAddressSame_Ext
address.[@primaryInsured.physicalRisk.address.ref].state,params.[0].quoteData.baseData.accountHolder.primaryAddress.state
address.[@primaryInsured.mailing.address.ref].zipcode,params.[0].quoteData.baseData.policyAddress.postalCode
address.[@primaryInsured.mailing.address.ref].zipcode,params.[0].quoteData.baseData.policyMailingAddress_Ext.postalCode
address.[@primaryInsured.mailing.address.ref].zipcode,params.[0].quoteData.baseData.policyMailingAddress_Ext.country
address.[@primaryInsured.mailing.address.ref].zipcode,params.[0].quoteData.baseData.policyBillingAddress_Ext.postalCode
address.[@primaryInsured.mailing.address.ref].zipcode,params.[0].quoteData.baseData.policyBillingAddress_Ext.country
address.[@primaryInsured.physicalRisk.address.ref].line1,params.[0].quoteData.baseData.accountHolder.primaryAddress.addressLine1
address.[@primaryInsured.physicalRisk.address.ref].line2,params.[0].quoteData.baseData.accountHolder.primaryAddress.addressLine2
address.[@primaryInsured.physicalRisk.address.ref].zipcode,params.[0].quoteData.baseData.accountHolder.primaryAddress.postalCode
address.[@primaryInsured.mailing.address.ref].city,params.[0].quoteData.baseData.policyAddress.city
address.[@primaryInsured.mailing.address.ref].city,params.[0].quoteData.baseData.policyMailingAddress_Ext.city
address.[@primaryInsured.mailing.address.ref].city,params.[0].quoteData.baseData.policyBillingAddress_Ext.city
address.[@primaryInsured.physicalRisk.address.ref].city,params.[0].quoteData.baseData.accountHolder.primaryAddress.city
address.[@primaryInsured.mailing.address.ref].state,params.[0].quoteData.baseData.policyAddress.state
address.[@primaryInsured.mailing.address.ref].state,params.[0].quoteData.baseData.policyMailingAddress_Ext.state
address.[@primaryInsured.mailing.address.ref].state,params.[0].quoteData.baseData.policyBillingAddress_Ext.state
